{
  "collect_config": "assets/rooftop/config_cinema.json",
  "environment": "desktop",
  "polylidar_kwargs": {
    "alpha": 0.0,
    "xyThresh": 4.0,
    "minTriangles": 30,
    "normThresh": 0.96,
    "minBboxArea": 20,
    "zThresh": 0.10
  },
  "commands": [
    {
      "command": "classify_point_clouds",
      "kwargs": { "ground_truth": true },
      "active": true
    },
    {
      "command": "polylidar",
      "kwargs": { "ground_truth": true },
      "active": true
    },
    {
      "command": "polylabel",
      "kwargs": { "ground_truth": true },
      "active": true
    },
    {
      "command": "scenepolygon",
      "kwargs": { "ground_truth": true },
      "active": true
    }
  ]
}
